Prediction: House Price In London Using Random Forest
…
random_forest_grid %>%
  collect_metrics()

# A tibble: 40 x 8
    mtry trees .metric .estimator  mean     n std_err .config
   <int> <int> <chr>   <chr>      <dbl> <int>   <dbl> <chr>  
 1     4  1204 rmse    standard   0.163    10 0.00273 Model01
 2     4  1204 rsq     standard   0.754    10 0.00799 Model01
 3     2  1683 rmse    standard   0.161    10 0.00288 Model02
 4     2  1683 rsq     standard   0.767    10 0.00596 Model02
 5     6   806 rmse    standard   0.172    10 0.00284 Model03
 6     6   806 rsq     standard   0.729    10 0.00885 Model03
 7     2   191 rmse    standard   0.161    10 0.00292 Model04
 8     2   191 rsq     standard   0.767    10 0.00610 Model04
 9     5  1733 rmse    standard   0.169    10 0.00282 Model05
10     5  1733 rsq     standard   0.739    10 0.00862 Model05
# ... with 30 more rows
…
